clock_generator/clk_gen.vcd
$date
	Tue Oct  5 14:48:29 2021
$end
$version
	Icarus Verilog
$end
$timescale
	100ps
$end
$scope module clk_divider_tb $end
$var wire 1 ! clk_f_s $end
$var wire 1 " clk_f $end
$var wire 1 # clk_4f_s $end
$var wire 1 $ clk_4f $end
$var wire 1 % clk_2f_s $end
$var wire 1 & clk_2f $end
$var reg 1 ' clk_32f $end
$scope module conductual $end
$var wire 1 ' clk_in $end
$var reg 1 & clk_2f $end
$var reg 1 $ clk_4f $end
$var reg 1 " clk_f $end
$var reg 28 ( counter1 [27:0] $end
$var reg 28 ) counter2 [27:0] $end
$var reg 28 * counter3 [27:0] $end
$upscope $end
$scope module estructural $end
$var wire 1 + _000_ $end
$var wire 1 , _001_ $end
$var wire 1 - _002_ $end
$var wire 1 . _021_ $end
$var wire 1 / _022_ $end
$var wire 1 0 _023_ $end
$var wire 1 1 _029_ $end
$var wire 1 2 _030_ $end
$var wire 1 3 _031_ $end
$var wire 1 4 _032_ $end
$var wire 1 5 _035_ $end
$var wire 1 6 _036_ $end
$var wire 1 7 _037_ $end
$var wire 1 8 _038_ $end
$var wire 1 9 _041_ $end
$var wire 1 : _042_ $end
$var wire 1 ; _043_ $end
$var wire 1 < _044_ $end
$var wire 1 = _051_ $end
$var wire 1 > _052_ $end
$var wire 1 ? _053_ $end
$var wire 1 @ _054_ $end
$var wire 1 A _055_ $end
$var wire 1 B _056_ $end
$var wire 1 C _057_ $end
$var wire 1 D _058_ $end
$var wire 1 E _059_ $end
$var wire 1 F _060_ $end
$var wire 1 G _061_ $end
$var wire 1 H _062_ $end
$var wire 1 I _063_ $end
$var wire 1 J _064_ $end
$var wire 1 K _065_ $end
$var wire 1 L _066_ $end
$var wire 1 M _067_ $end
$var wire 1 N _068_ $end
$var wire 1 O _069_ $end
$var wire 1 P _070_ $end
$var wire 1 Q _071_ $end
$var wire 1 R _072_ $end
$var wire 1 S _073_ $end
$var wire 1 T _074_ $end
$var wire 1 U _075_ $end
$var wire 1 V _076_ $end
$var wire 1 W _077_ $end
$var wire 1 X _078_ $end
$var wire 1 Y _079_ $end
$var wire 1 Z _080_ $end
$var wire 1 [ _081_ $end
$var wire 1 \ _082_ $end
$var wire 1 ] _083_ $end
$var wire 1 ^ _084_ $end
$var wire 1 _ _085_ $end
$var wire 1 ` _086_ $end
$var wire 1 a _087_ $end
$var wire 1 b _088_ $end
$var wire 1 c _089_ $end
$var wire 1 d _090_ $end
$var wire 1 e _091_ $end
$var wire 1 f _092_ $end
$var wire 1 g _093_ $end
$var wire 1 h _094_ $end
$var wire 1 i _095_ $end
$var wire 1 j _096_ $end
$var wire 1 k _097_ $end
$var wire 1 l _098_ $end
$var wire 1 m _099_ $end
$var wire 1 n _100_ $end
$var wire 1 o _101_ $end
$var wire 1 p _102_ $end
$var wire 1 q _103_ $end
$var wire 1 r _104_ $end
$var wire 1 s _105_ $end
$var wire 1 t _106_ $end
$var wire 1 u _107_ $end
$var wire 1 v _108_ $end
$var wire 1 w _109_ $end
$var wire 1 x _110_ $end
$var wire 1 y _111_ $end
$var wire 1 z _112_ $end
$var wire 1 { _113_ $end
$var wire 1 | _114_ $end
$var wire 1 } _115_ $end
$var wire 1 ~ _116_ $end
$var wire 1 !" _117_ $end
$var wire 1 "" _118_ $end
$var wire 1 #" _119_ $end
$var wire 1 $" _120_ $end
$var wire 1 %" _121_ $end
$var wire 1 &" _122_ $end
$var wire 1 '" _123_ $end
$var wire 1 (" _124_ $end
$var wire 1 )" _125_ $end
$var wire 1 *" _126_ $end
$var wire 1 +" _127_ $end
$var wire 1 ," _128_ $end
$var wire 1 -" _129_ $end
$var wire 1 ." _130_ $end
$var wire 1 /" _131_ $end
$var wire 1 0" _132_ $end
$var wire 1 1" _133_ $end
$var wire 1 2" _134_ $end
$var wire 1 3" _135_ $end
$var wire 1 4" _136_ $end
$var wire 1 5" _137_ $end
$var wire 1 6" _138_ $end
$var wire 1 7" _139_ $end
$var wire 1 8" _140_ $end
$var wire 1 9" _141_ $end
$var wire 1 :" _142_ $end
$var wire 1 ;" _143_ $end
$var wire 1 <" _144_ $end
$var wire 1 =" _145_ $end
$var wire 1 >" _146_ $end
$var wire 1 ?" _147_ $end
$var wire 1 @" _148_ $end
$var wire 1 A" _149_ $end
$var wire 1 B" _150_ $end
$var wire 1 C" _151_ $end
$var wire 1 D" _152_ $end
$var wire 1 E" _153_ $end
$var wire 1 F" _154_ $end
$var wire 1 G" _155_ $end
$var wire 1 H" _156_ $end
$var wire 1 I" _157_ $end
$var wire 1 J" _158_ $end
$var wire 1 K" _159_ $end
$var wire 1 L" _160_ $end
$var wire 1 M" _161_ $end
$var wire 1 N" _162_ $end
$var wire 1 O" _163_ $end
$var wire 1 P" _164_ $end
$var wire 1 Q" _165_ $end
$var wire 1 R" _166_ $end
$var wire 1 S" _167_ $end
$var wire 1 T" _168_ $end
$var wire 1 U" _169_ $end
$var wire 1 V" _170_ $end
$var wire 1 W" _171_ $end
$var wire 1 X" _172_ $end
$var wire 1 Y" _173_ $end
$var wire 1 Z" _174_ $end
$var wire 1 [" _175_ $end
$var wire 1 \" _176_ $end
$var wire 1 ]" _177_ $end
$var wire 1 ^" _178_ $end
$var wire 1 _" _179_ $end
$var wire 1 `" _180_ $end
$var wire 1 a" _181_ $end
$var wire 1 b" _182_ $end
$var wire 1 c" _183_ $end
$var wire 1 d" _184_ $end
$var wire 1 e" _185_ $end
$var wire 1 f" _186_ $end
$var wire 1 g" _187_ $end
$var wire 1 h" _188_ $end
$var wire 1 i" _189_ $end
$var wire 1 j" _190_ $end
$var wire 1 k" _191_ $end
$var wire 1 l" _192_ $end
$var wire 1 m" _193_ $end
$var wire 1 n" _194_ $end
$var wire 1 o" _195_ $end
$var wire 1 p" _196_ $end
$var wire 1 q" _197_ $end
$var wire 1 r" _198_ $end
$var wire 1 s" _199_ $end
$var wire 1 t" _200_ $end
$var wire 1 u" _201_ $end
$var wire 1 v" _202_ $end
$var wire 1 w" _203_ $end
$var wire 1 x" _204_ $end
$var wire 1 y" _205_ $end
$var wire 1 z" _206_ $end
$var wire 1 {" _207_ $end
$var wire 1 |" _208_ $end
$var wire 1 }" _209_ $end
$var wire 1 ~" _210_ $end
$var wire 1 !# _211_ $end
$var wire 1 "# _212_ $end
$var wire 1 ## _213_ $end
$var wire 1 $# _214_ $end
$var wire 1 %# _215_ $end
$var wire 1 &# _216_ $end
$var wire 1 '# _217_ $end
$var wire 1 (# _218_ $end
$var wire 1 )# _219_ $end
$var wire 1 *# _220_ $end
$var wire 1 +# _221_ $end
$var wire 1 ,# _222_ $end
$var wire 1 -# _223_ $end
$var wire 1 .# _224_ $end
$var wire 1 /# _225_ $end
$var wire 1 0# _226_ $end
$var wire 1 1# _227_ $end
$var wire 1 2# _228_ $end
$var wire 1 3# _229_ $end
$var wire 1 4# _230_ $end
$var wire 1 5# _231_ $end
$var wire 1 6# _232_ $end
$var wire 1 7# _233_ $end
$var wire 1 8# _234_ $end
$var wire 1 9# _235_ $end
$var wire 1 :# _236_ $end
$var wire 1 ;# _237_ $end
$var wire 1 <# _238_ $end
$var wire 1 =# _239_ $end
$var wire 1 ># _240_ $end
$var wire 1 ?# _241_ $end
$var wire 1 @# _242_ $end
$var wire 1 A# _243_ $end
$var wire 1 B# _244_ $end
$var wire 1 C# _245_ $end
$var wire 1 D# _246_ $end
$var wire 1 E# _247_ $end
$var wire 1 F# _248_ $end
$var wire 1 G# _249_ $end
$var wire 1 H# _250_ $end
$var wire 1 I# _251_ $end
$var wire 1 J# _252_ $end
$var wire 1 K# _253_ $end
$var wire 1 L# _254_ $end
$var wire 1 M# _255_ $end
$var wire 1 ' clk_in $end
$var wire 32 N# _050_ [31:0] $end
$var wire 32 O# _049_ [31:0] $end
$var wire 32 P# _048_ [31:0] $end
$var wire 32 Q# _047_ [31:0] $end
$var wire 32 R# _046_ [31:0] $end
$var wire 32 S# _045_ [31:0] $end
$var wire 32 T# _040_ [31:0] $end
$var wire 32 U# _039_ [31:0] $end
$var wire 32 V# _034_ [31:0] $end
$var wire 32 W# _033_ [31:0] $end
$var wire 32 X# _028_ [31:0] $end
$var wire 32 Y# _027_ [31:0] $end
$var wire 28 Z# _026_ [27:0] $end
$var wire 28 [# _025_ [27:0] $end
$var wire 28 \# _024_ [27:0] $end
$var wire 2 ]# _020_ [1:0] $end
$var wire 4 ^# _019_ [3:0] $end
$var wire 8 _# _018_ [7:0] $end
$var wire 16 `# _017_ [15:0] $end
$var wire 2 a# _016_ [1:0] $end
$var wire 4 b# _015_ [3:0] $end
$var wire 8 c# _014_ [7:0] $end
$var wire 16 d# _013_ [15:0] $end
$var wire 2 e# _012_ [1:0] $end
$var wire 4 f# _011_ [3:0] $end
$var wire 8 g# _010_ [7:0] $end
$var wire 16 h# _009_ [15:0] $end
$var wire 28 i# _008_ [27:0] $end
$var wire 28 j# _007_ [27:0] $end
$var wire 28 k# _006_ [27:0] $end
$var wire 28 l# _005_ [27:0] $end
$var wire 28 m# _004_ [27:0] $end
$var wire 28 n# _003_ [27:0] $end
$var reg 1 % clk_2f $end
$var reg 1 # clk_4f $end
$var reg 1 ! clk_f $end
$var reg 28 o# counter1 [27:0] $end
$var reg 28 p# counter2 [27:0] $end
$var reg 28 q# counter3 [27:0] $end
$upscope $end
$upscope $end
$enddefinitions $end
#0
$dumpvars
b100 q#
b100 p#
b100 o#
b101 n#
b101 m#
b101 l#
b101 k#
b101 j#
b101 i#
b1111111111111000 h#
b11111100 g#
b1110 f#
b10 e#
b1111111111111100 d#
b11111110 c#
b1110 b#
b10 a#
b1111111111111110 `#
b11111110 _#
b1110 ^#
b10 ]#
bz000000000000000000000000000 \#
bz000000000000000000000000000 [#
bz000000000000000000000000000 Z#
b0zzzzzzzzzzzzzzz0zzzzzzz0zz00000 Y#
b11111111111111111111111111100100 X#
b0zzzzzzzzzzzzzzz0zzzzzzz0zzz0000 W#
b11111111111111111111111111110100 V#
b0zzzzzzzzzzzzzzz0zzzzzzz0zzz0000 U#
b11111111111111111111111111111100 T#
b0zzzzzzzzzzzzzzz0zzzzzzz0zzz1z11 S#
b11111111111111111111111111101011 R#
b0zzzzzzzzzzzzzzz0zzzzzzz0zzz0z11 Q#
b11111111111111111111111111110011 P#
b1zzzzzzzzzzzzzzz1zzzzzzz1zzz1z11 O#
b11111111111111111111111111111111 N#
1M#
1L#
1K#
1J#
1I#
0H#
0G#
0F#
0E#
0D#
1C#
1B#
0A#
0@#
0?#
0>#
0=#
1<#
1;#
0:#
09#
08#
07#
06#
05#
04#
03#
02#
01#
00#
0/#
0.#
0-#
0,#
0+#
0*#
0)#
0(#
0'#
0&#
0%#
0$#
0##
0"#
0!#
0~"
0}"
0|"
0{"
0z"
0y"
0x"
0w"
0v"
0u"
0t"
0s"
0r"
0q"
0p"
0o"
0n"
0m"
0l"
0k"
0j"
0i"
0h"
0g"
0f"
0e"
0d"
0c"
0b"
0a"
0`"
0_"
0^"
0]"
0\"
0["
0Z"
0Y"
0X"
0W"
0V"
0U"
0T"
0S"
0R"
0Q"
0P"
0O"
0N"
0M"
0L"
0K"
0J"
0I"
0H"
0G"
0F"
0E"
0D"
0C"
0B"
0A"
0@"
0?"
0>"
0="
0<"
0;"
0:"
09"
08"
07"
06"
05"
04"
03"
02"
01"
00"
0/"
0."
0-"
0,"
0+"
0*"
0)"
0("
0'"
0&"
0%"
0$"
0#"
0""
0!"
0~
0}
0|
0{
0z
0y
0x
0w
0v
0u
0t
0s
0r
0q
0p
0o
0n
0m
0l
0k
0j
0i
0h
0g
0f
0e
0d
0c
0b
0a
0`
0_
0^
0]
0\
0[
0Z
0Y
0X
0W
0V
0U
0T
0S
0R
0Q
0P
0O
0N
0M
0L
0K
0J
0I
0H
0G
0F
0E
0D
0C
0B
0A
0@
0?
0>
0=
1<
0;
0:
19
18
07
06
15
14
03
02
11
00
0/
0.
1-
0,
1+
b100 *
b100 )
b100 (
0'
x&
x%
x$
x#
x"
x!
$end
#100
b11111111111111111111111111111110 N#
b110 l#
b11111111111111111111111111110010 P#
b110 m#
b11111111111111111111111111101010 R#
b110 n#
b110 i#
b0zzzzzzzzzzzzzzz0zzzzzzz0zzz0001 U#
b11111111111111111111111111111101 T#
b110 j#
bz000000000000000000000000001 [#
b0zzzzzzzzzzzzzzz0zzzzzzz0zzz0001 W#
b11111111111111111111111111110101 V#
b110 k#
bz000000000000000000000000001 \#
b0zzzzzzzzzzzzzzz0zzzzzzz0zz00001 Y#
b11111111111111111111111111100101 X#
bz000000000000000000000000001 Z#
1"
b101 (
1&
b101 )
0$
b101 *
b101 q#
0#
b101 p#
1%
b101 o#
1!
1'
#200
0'
#300
b111 n#
0;#
b111 m#
0C#
b111 l#
0I#
b11111111111111111111111111101001 R#
b111 k#
b0zzzzzzzzzzzzzzz0zzzzzzz0zzz1z11 S#
bz000000000000000000000000000 \#
b0zzzzzzzzzzzzzzz0zzzzzzz0zz00000 Y#
b11111111111111111111111111100110 X#
b11111111111111111111111111110001 P#
b111 j#
b0zzzzzzzzzzzzzzz0zzzzzzz0zzz0z11 Q#
bz000000000000000000000000000 [#
b0zzzzzzzzzzzzzzz0zzzzzzz0zzz0000 W#
b11111111111111111111111111110110 V#
b11111111111111111111111111111101 N#
b111 i#
b1zzzzzzzzzzzzzzz1zzzzzzz1zzz1z11 O#
b0zzzzzzzzzzzzzzz0zzzzzzz0zzz0000 U#
b11111111111111111111111111111110 T#
bz000000000000000000000000000 Z#
b110 o#
b110 p#
b110 q#
b110 *
b110 )
b110 (
1'
#400
0'
#500
09
1&#
1$#
10
1;
1~"
b11 ]#
b1111 ^#
b11111111111111111111111111111100 N#
b0 l#
b11111111 _#
b11111111111111111111111111110000 P#
b1000 m#
b11111111111111111111111111101000 R#
b1000 n#
b1000 i#
b1111111111111111 `#
b1zzzzzzzzzzzzzzz1zzzzzzz1zzz1111 U#
b11111111111111111111111111111111 T#
b1000 j#
b1111111111111101 d#
bz000000000000000000000000111 [#
b0zzzzzzzzzzzzzzz0zzzzzzz0zzz0111 W#
b11111111111111111111111111110111 V#
b1111111111111001 h#
b1000 k#
bz000000000000000000000000111 \#
b0zzzzzzzzzzzzzzz0zzzzzzz0zz00111 Y#
b11111111111111111111111111100111 X#
bz000000000000000000000000111 Z#
b111 (
b111 )
b111 *
b111 q#
b111 p#
b111 o#
1'
#600
0'
#700
0+
1G#
19
1,
1F#
0&#
0M#
1E#
b1 l#
0:
0$#
00
1<
0L#
0;
1D#
0~"
b10 ]#
0K#
1;#
1C#
1I#
b1110 ^#
b1001 n#
1H#
b1001 m#
0J#
b11111110 _#
0<#
b11111111111111111111111111100111 R#
b1001 k#
b1111111111111000 h#
b0zzzzzzzzzzzzzzz0zzzzzzz0zzz1z11 S#
bz000000000000000000000000000 \#
b0zzzzzzzzzzzzzzz0zzzzzzz0zz00000 Y#
b11111111111111111111111111101000 X#
b11111111111111111111111111111111 P#
b1001 j#
b1zzzzzzzzzzzzzzz1zzzzzzz1zzz1z11 Q#
b1111111111111100 d#
bz000000000000000000000000000 [#
b0zzzzzzzzzzzzzzz0zzzzzzz0zzz0000 W#
b11111111111111111111111111111000 V#
b11111111111111111111111111111011 N#
b1 i#
b0zzzzzzzzzzzzzzz0zzzzzzz0zzz0z11 O#
b1111111111111100 `#
b0zzzzzzzzzzzzzzz0zzzzzzz0zzz0000 U#
b11111111111111111111111111111000 T#
bz000000000000000000000000000 Z#
b1000 o#
b1000 p#
b0 q#
b0 *
b1000 )
b1000 (
1'
#800
0'
#900
b11111111111111111111111111111010 N#
b10 l#
b11111111111111111111111111111110 P#
b1010 m#
b11111111111111111111111111100110 R#
b1010 n#
b10 i#
b0zzzzzzzzzzzzzzz0zzzzzzz0zzz0001 U#
b11111111111111111111111111111001 T#
b1010 j#
bz000000000000000000000000001 [#
b0zzzzzzzzzzzzzzz0zzzzzzz0zzz0001 W#
b11111111111111111111111111111001 V#
b1010 k#
bz000000000000000000000000001 \#
b0zzzzzzzzzzzzzzz0zzzzzzz0zz00001 Y#
b11111111111111111111111111101001 X#
bz000000000000000000000000001 Z#
b1001 (
0&
b1001 )
1$
b1 *
b1 q#
1#
b1001 p#
0%
b1001 o#
1'
#1000
0'
#1100
b1011 n#
0;#
b1011 m#
0C#
b11 l#
0I#
b11111111111111111111111111100101 R#
b1011 k#
b0zzzzzzzzzzzzzzz0zzzzzzz0zzz1z11 S#
bz000000000000000000000000000 \#
b0zzzzzzzzzzzzzzz0zzzzzzz0zz00000 Y#
b11111111111111111111111111101010 X#
b11111111111111111111111111111101 P#
b1011 j#
b1zzzzzzzzzzzzzzz1zzzzzzz1zzz1z11 Q#
bz000000000000000000000000000 [#
b0zzzzzzzzzzzzzzz0zzzzzzz0zzz0000 W#
b11111111111111111111111111111010 V#
b11111111111111111111111111111001 N#
b11 i#
b0zzzzzzzzzzzzzzz0zzzzzzz0zzz0z11 O#
b0zzzzzzzzzzzzzzz0zzzzzzz0zzz0000 U#
b11111111111111111111111111111010 T#
bz000000000000000000000000000 Z#
b1010 o#
b1010 p#
b10 q#
b10 *
b1010 )
b1010 (
1'
#1200
0'
#1300
b11111111111111111111111111111000 N#
b100 l#
b11111111111111111111111111111100 P#
b1100 m#
b11111111111111111111111111100100 R#
b1100 n#
b100 i#
b1111111111111101 `#
b0zzzzzzzzzzzzzzz0zzzzzzz0zzz0011 U#
b11111111111111111111111111111011 T#
b1100 j#
b1111111111111101 d#
bz000000000000000000000000011 [#
b0zzzzzzzzzzzzzzz0zzzzzzz0zzz0011 W#
b11111111111111111111111111111011 V#
b1111111111111001 h#
b1100 k#
bz000000000000000000000000011 \#
b0zzzzzzzzzzzzzzz0zzzzzzz0zz00011 Y#
b11111111111111111111111111101011 X#
bz000000000000000000000000011 Z#
b1011 (
b1011 )
b11 *
b11 q#
b1011 p#
b1011 o#
1'
#1400
0'
#1500
0,
1M#
1L#
1K#
1J#
1;#
1C#
1I#
b1101 n#
0H#
0D#
b1101 m#
b101 l#
b11111111111111111111111111100011 R#
b1101 k#
b1111111111111010 h#
b0zzzzzzzzzzzzzzz0zzzzzzz0zzz1z11 S#
bz000000000000000000000000000 \#
b0zzzzzzzzzzzzzzz0zzzzzzz0zz00000 Y#
b11111111111111111111111111101100 X#
b11111111111111111111111111111011 P#
b1101 j#
b1zzzzzzzzzzzzzzz1zzzzzzz1zzz1z11 Q#
b1111111111111110 d#
bz000000000000000000000000000 [#
b0zzzzzzzzzzzzzzz0zzzzzzz0zzz0000 W#
b11111111111111111111111111111100 V#
b11111111111111111111111111111111 N#
b101 i#
b1zzzzzzzzzzzzzzz1zzzzzzz1zzz1z11 O#
b1111111111111110 `#
b0zzzzzzzzzzzzzzz0zzzzzzz0zzz0000 U#
b11111111111111111111111111111100 T#
bz000000000000000000000000000 Z#
b1100 o#
b1100 p#
b100 q#
b100 *
b1100 )
b1100 (
1'
#1600
0'
#1700
b11111111111111111111111111111110 N#
b110 l#
b11111111111111111111111111111010 P#
b1110 m#
b11111111111111111111111111100010 R#
b1110 n#
b110 i#
b0zzzzzzzzzzzzzzz0zzzzzzz0zzz0001 U#
b11111111111111111111111111111101 T#
b1110 j#
bz000000000000000000000000001 [#
b0zzzzzzzzzzzzzzz0zzzzzzz0zzz0001 W#
b11111111111111111111111111111101 V#
b1110 k#
bz000000000000000000000000001 \#
b0zzzzzzzzzzzzzzz0zzzzzzz0zz00001 Y#
b11111111111111111111111111101101 X#
bz000000000000000000000000001 Z#
b1101 (
b1101 )
0$
b101 *
b101 q#
0#
b1101 p#
b1101 o#
1'
#1800
0'
#1900
b1111 n#
0;#
b1111 m#
0C#
b111 l#
0I#
b11111111111111111111111111100001 R#
b1111 k#
b0zzzzzzzzzzzzzzz0zzzzzzz0zzz1z11 S#
bz000000000000000000000000000 \#
b0zzzzzzzzzzzzzzz0zzzzzzz0zz00000 Y#
b11111111111111111111111111101110 X#
b11111111111111111111111111111001 P#
b1111 j#
b1zzzzzzzzzzzzzzz1zzzzzzz1zzz1z11 Q#
bz000000000000000000000000000 [#
b0zzzzzzzzzzzzzzz0zzzzzzz0zzz0000 W#
b11111111111111111111111111111110 V#
b11111111111111111111111111111101 N#
b111 i#
b1zzzzzzzzzzzzzzz1zzzzzzz1zzz1z11 O#
b0zzzzzzzzzzzzzzz0zzzzzzz0zzz0000 U#
b11111111111111111111111111111110 T#
bz000000000000000000000000000 Z#
b1110 o#
b1110 p#
b110 q#
b110 *
b1110 )
b1110 (
1'
#2000
0'
#2100
09
05
1&#
1W"
1$#
10
1/
1;
1U"
17
1~"
b11 ]#
b11 a#
b1111 ^#
b1111 b#
b11111111111111111111111111111100 N#
b0 l#
b11111111 _#
b11111111111111111111111111111000 P#
b0 m#
b11111111 c#
b11111111111111111111111111100000 R#
b11111101 g#
b10000 n#
b1000 i#
b1111111111111111 `#
b1zzzzzzzzzzzzzzz1zzzzzzz1zzz1111 U#
b11111111111111111111111111111111 T#
b10000 j#
b1111111111111111 d#
bz000000000000000000000001111 [#
b1zzzzzzzzzzzzzzz1zzzzzzz1zzz1111 W#
b11111111111111111111111111111111 V#
b1111111111111011 h#
b10000 k#
bz000000000000000000000001111 \#
b0zzzzzzzzzzzzzzz0zzzzzzz0zz01111 Y#
b11111111111111111111111111101111 X#
bz000000000000000000000000111 Z#
b1111 (
b1111 )
b111 *
b111 q#
b1111 p#
b1111 o#
1'
#2200
0'
#2300
0-
1@#
19
15
1,
1?#
1+
0&#
0W"
0M#
1>#
0G#
b1 m#
06
b1 l#
0:
0/
18
0$#
00
1<
0U"
07
0L#
0;
1=#
0F#
b10 a#
0~"
b10 ]#
0K#
1;#
0E#
1C#
b1110 b#
1I#
b1110 ^#
1A#
b10001 n#
b11111110 g#
b11111110 c#
0J#
b11111110 _#
0B#
b11111111111111111111111111111111 R#
b10001 k#
b1111111111111100 h#
b1zzzzzzzzzzzzzzz1zzzzzzz1zzz1z11 S#
bz000000000000000000000000000 \#
b0zzzzzzzzzzzzzzz0zzzzzzz0zz00000 Y#
b11111111111111111111111111110000 X#
b11111111111111111111111111110111 P#
b1 j#
b0zzzzzzzzzzzzzzz0zzzzzzz0zzz0z11 Q#
b1111111111111100 d#
bz000000000000000000000000000 [#
b0zzzzzzzzzzzzzzz0zzzzzzz0zzz0000 W#
b11111111111111111111111111110000 V#
b11111111111111111111111111111011 N#
b1 i#
b0zzzzzzzzzzzzzzz0zzzzzzz0zzz0z11 O#
b1111111111111100 `#
b0zzzzzzzzzzzzzzz0zzzzzzz0zzz0000 U#
b11111111111111111111111111111000 T#
bz000000000000000000000000000 Z#
b10000 o#
b0 p#
b0 q#
b0 *
b0 )
b10000 (
1'
#2400
0'
#2500
b11111111111111111111111111111010 N#
b10 l#
b11111111111111111111111111110110 P#
b10 m#
b11111111111111111111111111111110 R#
b10010 n#
b10 i#
b0zzzzzzzzzzzzzzz0zzzzzzz0zzz0001 U#
b11111111111111111111111111111001 T#
b10 j#
bz000000000000000000000000001 [#
b0zzzzzzzzzzzzzzz0zzzzzzz0zzz0001 W#
b11111111111111111111111111110001 V#
b10010 k#
bz000000000000000000000000001 \#
b0zzzzzzzzzzzzzzz0zzzzzzz0zz00001 Y#
b11111111111111111111111111110001 X#
bz000000000000000000000000001 Z#
0"
b10001 (
1&
b1 )
1$
b1 *
b1 q#
1#
b1 p#
1%
b10001 o#
0!
1'
#2600
0'
#2700
b10011 n#
0;#
b11 m#
0C#
b11 l#
0I#
b11111111111111111111111111111101 R#
b10011 k#
b1zzzzzzzzzzzzzzz1zzzzzzz1zzz1z11 S#
bz000000000000000000000000000 \#
b0zzzzzzzzzzzzzzz0zzzzzzz0zz00000 Y#
b11111111111111111111111111110010 X#
b11111111111111111111111111110101 P#
b11 j#
b0zzzzzzzzzzzzzzz0zzzzzzz0zzz0z11 Q#
bz000000000000000000000000000 [#
b0zzzzzzzzzzzzzzz0zzzzzzz0zzz0000 W#
b11111111111111111111111111110010 V#
b11111111111111111111111111111001 N#
b11 i#
b0zzzzzzzzzzzzzzz0zzzzzzz0zzz0z11 O#
b0zzzzzzzzzzzzzzz0zzzzzzz0zzz0000 U#
b11111111111111111111111111111010 T#
bz000000000000000000000000000 Z#
b10010 o#
b10 p#
b10 q#
b10 *
b10 )
b10010 (
1'
#2800
0'
#2900
b11111111111111111111111111111000 N#
b100 l#
b11111111111111111111111111110100 P#
b100 m#
b11111111111111111111111111111100 R#
b10100 n#
b100 i#
b1111111111111101 `#
b0zzzzzzzzzzzzzzz0zzzzzzz0zzz0011 U#
b11111111111111111111111111111011 T#
b100 j#
b1111111111111101 d#
bz000000000000000000000000011 [#
b0zzzzzzzzzzzzzzz0zzzzzzz0zzz0011 W#
b11111111111111111111111111110011 V#
b1111111111111101 h#
b10100 k#
bz000000000000000000000000011 \#
b0zzzzzzzzzzzzzzz0zzzzzzz0zz00011 Y#
b11111111111111111111111111110011 X#
bz000000000000000000000000011 Z#
b10011 (
b11 )
b11 *
b11 q#
b11 p#
b10011 o#
1'
#3000
0'
#3100
0,
1M#
1L#
1K#
1J#
1;#
1C#
1I#
0A#
0=#
b10101 n#
b101 m#
b101 l#
1B#
1<#
b11111111111111111111111111111011 R#
b10101 k#
b1111111111111100 h#
b1zzzzzzzzzzzzzzz1zzzzzzz1zzz1z11 S#
bz000000000000000000000000000 \#
b0zzzzzzzzzzzzzzz0zzzzzzz0zz00000 Y#
b11111111111111111111111111110100 X#
b11111111111111111111111111110011 P#
b101 j#
b0zzzzzzzzzzzzzzz0zzzzzzz0zzz0z11 Q#
b1111111111111100 d#
bz000000000000000000000000000 [#
b0zzzzzzzzzzzzzzz0zzzzzzz0zzz0000 W#
b11111111111111111111111111110100 V#
b11111111111111111111111111111111 N#
b101 i#
b1zzzzzzzzzzzzzzz1zzzzzzz1zzz1z11 O#
b1111111111111110 `#
b0zzzzzzzzzzzzzzz0zzzzzzz0zzz0000 U#
b11111111111111111111111111111100 T#
bz000000000000000000000000000 Z#
b10100 o#
b100 p#
b100 q#
b100 *
b100 )
b10100 (
1'
#3200
0'
#3300
b11111111111111111111111111111110 N#
b110 l#
b11111111111111111111111111110010 P#
b110 m#
b11111111111111111111111111111010 R#
b10110 n#
b110 i#
b0zzzzzzzzzzzzzzz0zzzzzzz0zzz0001 U#
b11111111111111111111111111111101 T#
b110 j#
bz000000000000000000000000001 [#
b0zzzzzzzzzzzzzzz0zzzzzzz0zzz0001 W#
b11111111111111111111111111110101 V#
b10110 k#
bz000000000000000000000000001 \#
b0zzzzzzzzzzzzzzz0zzzzzzz0zz00001 Y#
b11111111111111111111111111110101 X#
bz000000000000000000000000001 Z#
b10101 (
b101 )
0$
b101 *
b101 q#
0#
b101 p#
b10101 o#
1'
#3400
0'
#3500
b10111 n#
0;#
b111 m#
0C#
b111 l#
0I#
b11111111111111111111111111111001 R#
b10111 k#
b1zzzzzzzzzzzzzzz1zzzzzzz1zzz1z11 S#
bz000000000000000000000000000 \#
b0zzzzzzzzzzzzzzz0zzzzzzz0zz00000 Y#
b11111111111111111111111111110110 X#
b11111111111111111111111111110001 P#
b111 j#
b0zzzzzzzzzzzzzzz0zzzzzzz0zzz0z11 Q#
bz000000000000000000000000000 [#
b0zzzzzzzzzzzzzzz0zzzzzzz0zzz0000 W#
b11111111111111111111111111110110 V#
b11111111111111111111111111111101 N#
b111 i#
b1zzzzzzzzzzzzzzz1zzzzzzz1zzz1z11 O#
b0zzzzzzzzzzzzzzz0zzzzzzz0zzz0000 U#
b11111111111111111111111111111110 T#
bz000000000000000000000000000 Z#
b10110 o#
b110 p#
b110 q#
b110 *
b110 )
b10110 (
1'
#3600
0'
#3700
09
1&#
1$#
10
1;
1~"
b11 ]#
b1111 ^#
b11111111111111111111111111111100 N#
b0 l#
b11111111 _#
b11111111111111111111111111110000 P#
b1000 m#
b11111111111111111111111111111000 R#
b11000 n#
b1000 i#
b1111111111111111 `#
b1zzzzzzzzzzzzzzz1zzzzzzz1zzz1111 U#
b11111111111111111111111111111111 T#
b1000 j#
b1111111111111101 d#
bz000000000000000000000000111 [#
b0zzzzzzzzzzzzzzz0zzzzzzz0zzz0111 W#
b11111111111111111111111111110111 V#
b1111111111111101 h#
b11000 k#
bz000000000000000000000000111 \#
b0zzzzzzzzzzzzzzz0zzzzzzz0zz00111 Y#
b11111111111111111111111111110111 X#
bz000000000000000000000000111 Z#
b10111 (
b111 )
b111 *
b111 q#
b111 p#
b10111 o#
1'
#3800
0'
#3900
0+
1G#
19
1,
1F#
0&#
0M#
1E#
b1 l#
0:
0$#
00
1<
0L#
0;
1D#
0~"
b10 ]#
0K#
1;#
1C#
1I#
b1110 ^#
b11001 n#
1H#
b1001 m#
0J#
b11111110 _#
0<#
b11111111111111111111111111110111 R#
b11001 k#
b1111111111111100 h#
b1zzzzzzzzzzzzzzz1zzzzzzz1zzz1z11 S#
bz000000000000000000000000000 \#
b0zzzzzzzzzzzzzzz0zzzzzzz0zz00000 Y#
b11111111111111111111111111111000 X#
b11111111111111111111111111111111 P#
b1001 j#
b1zzzzzzzzzzzzzzz1zzzzzzz1zzz1z11 Q#
b1111111111111100 d#
bz000000000000000000000000000 [#
b0zzzzzzzzzzzzzzz0zzzzzzz0zzz0000 W#
b11111111111111111111111111111000 V#
b11111111111111111111111111111011 N#
b1 i#
b0zzzzzzzzzzzzzzz0zzzzzzz0zzz0z11 O#
b1111111111111100 `#
b0zzzzzzzzzzzzzzz0zzzzzzz0zzz0000 U#
b11111111111111111111111111111000 T#
bz000000000000000000000000000 Z#
b11000 o#
b1000 p#
b0 q#
b0 *
b1000 )
b11000 (
1'
#4000
0'
