Manejo_bits/Senales_8_32.vcd
$date
	Tue Oct  5 15:00:35 2021
$end
$version
	Icarus Verilog
$end
$timescale
	100ps
$end
$scope module BancoPruebas $end
$var wire 32 ! data_out [31:0] $end
$var wire 1 " valid_out $end
$var wire 1 # valid_0 $end
$var wire 8 $ data_in [7:0] $end
$var wire 1 % clk4f $end
$var wire 1 & clk $end
$scope module conductual $end
$var wire 1 # valid_0 $end
$var wire 8 ' data_in [7:0] $end
$var wire 1 % clk $end
$var reg 2 ( contador [1:0] $end
$var reg 32 ) data_out [31:0] $end
$var reg 1 * valid_out $end
$upscope $end
$scope module estructural $end
$var wire 1 + _004_ $end
$var wire 1 , _005_ $end
$var wire 1 - _006_ $end
$var wire 1 . _007_ $end
$var wire 1 / _008_ $end
$var wire 1 0 _009_ $end
$var wire 1 1 _010_ $end
$var wire 1 2 _011_ $end
$var wire 1 3 _013_ $end
$var wire 1 4 _014_ $end
$var wire 1 5 _015_ $end
$var wire 1 6 _016_ $end
$var wire 1 7 _019_ $end
$var wire 1 8 _020_ $end
$var wire 1 9 _021_ $end
$var wire 1 : _028_ $end
$var wire 1 ; _029_ $end
$var wire 1 < _030_ $end
$var wire 1 = _031_ $end
$var wire 1 # valid_0 $end
$var wire 8 > data_in [7:0] $end
$var wire 1 % clk $end
$var wire 8 ? _027_ [7:0] $end
$var wire 16 @ _026_ [15:0] $end
$var wire 8 A _025_ [7:0] $end
$var wire 16 B _024_ [15:0] $end
$var wire 8 C _023_ [7:0] $end
$var wire 16 D _022_ [15:0] $end
$var wire 8 E _018_ [7:0] $end
$var wire 16 F _017_ [15:0] $end
$var wire 2 G _012_ [1:0] $end
$var wire 32 H _003_ [31:0] $end
$var wire 32 I _002_ [31:0] $end
$var wire 32 J _001_ [31:0] $end
$var wire 2 K _000_ [1:0] $end
$var reg 2 L contador [1:0] $end
$var reg 32 M data_out [31:0] $end
$var reg 1 N valid_out $end
$upscope $end
$scope module prob $end
$var wire 32 O salida [31:0] $end
$var wire 1 " valid_out $end
$var wire 1 % clk4f $end
$var wire 1 & clk $end
$var reg 8 P entrada [7:0] $end
$var reg 1 Q reloj $end
$var reg 1 # valid_0 $end
$scope module f1 $end
$var wire 1 Q clk_in $end
$var reg 1 & clk_1 $end
$var reg 28 R counter [27:0] $end
$upscope $end
$scope module f2 $end
$var wire 1 Q clk_in $end
$var reg 1 % clk_4 $end
$var reg 28 S counter [27:0] $end
$upscope $end
$upscope $end
$upscope $end
$enddefinitions $end
#0
$dumpvars
b100 S
b100 R
0Q
bx P
bx O
xN
bx M
b0 L
b0 K
bx J
bx I
b0z01 H
b11 G
bx00000000 F
bx E
b0xxxxxxxx D
bx C
b0xxxxxxxx B
bx A
bx00000000 @
bx ?
bx >
1=
1<
1;
1:
09
08
07
16
15
14
13
02
01
00
0/
0.
1-
1,
1+
x*
bx )
b0 (
bx '
x&
x%
bx $
0#
x"
bx !
$end
#100
1&
b101 R
0%
b101 S
1Q
#200
0Q
#300
b110 S
b110 R
1Q
#400
0Q
#500
b111 R
b111 S
1Q
#600
0Q
#700
b0 S
b1000 R
1Q
#800
0Q
#900
1"
1*
b1 (
1N
b11111111xxxxxxxxxxxxxxxxxxxxxxxx J
b11111111xxxxxxxxxxxxxxxxxxxxxxxx I
b11111111 ?
b1111111100000000 @
b1 K
b11111111xxxxxxxxxxxxxxxxxxxxxxxx )
b11111111 $
b11111111 '
b11111111 >
b11111111 P
1#
b1001 R
1%
b1 S
1Q
#1000
0Q
#1100
b10 S
b1010 R
1Q
#1200
0Q
#1300
b1011 R
b11 S
1Q
#1400
0Q
#1500
b100 S
b1100 R
1Q
#1600
0Q
#1700
b1101 R
0%
b101 S
1Q
#1800
0Q
#1900
b110 S
b1110 R
1Q
#2000
0Q
#2100
b1111 R
b111 S
1Q
#2200
0Q
#2300
b0 S
b10000 R
1Q
#2400
0Q
#2500
b1111111111111111xxxxxxxxxxxxxxxx J
b11111111 A
bx C
bx E
1.
b11111111 ?
10
1/
b1111111111111111xxxxxxxxxxxxxxxx I
b1111111100000000 B
1;
b0xxxxxxxx D
1:
bx00000000 F
19
b11111111 @
1=
0-
1,
1+
b10 K
05
06
b10 G
12
b0z10 H
b11111111xxxxxxxxxxxxxxxxxxxxxxxx !
b11111111xxxxxxxxxxxxxxxxxxxxxxxx O
b11111111xxxxxxxxxxxxxxxxxxxxxxxx M
b1 L
b10 (
b1111111111111111xxxxxxxxxxxxxxxx )
0&
b10001 R
1%
b1 S
1Q
#2600
0Q
#2700
b10 S
b10010 R
1Q
#2800
0Q
#2900
b10011 R
b11 S
1Q
#3000
0Q
#3100
b100 S
b10100 R
1Q
#3200
0Q
#3300
b10101 R
0%
b101 S
1Q
#3400
0Q
#3500
b110 S
b10110 R
1Q
#3600
0Q
#3700
b10111 R
b111 S
1Q
#3800
0Q
#3900
b0 S
b11000 R
1Q
#4000
0Q
#4100
b11111111 ?
bx E
b11111111 C
b111111111111111111111111xxxxxxxx J
1-
b11111111 A
1=
b11111111 @
1:
bx00000000 F
b1111111100000000 D
11
b111111111111111111111111xxxxxxxx I
0,
1.
1+
18
b11 K
b11111111 B
1<
00
1/
04
09
b0z11 H
15
b1 G
b11 (
b10 L
b1111111111111111xxxxxxxxxxxxxxxx !
b1111111111111111xxxxxxxxxxxxxxxx O
b1111111111111111xxxxxxxxxxxxxxxx M
b111111111111111111111111xxxxxxxx )
b11001 R
1%
b1 S
1Q
#4200
0Q
#4300
b10 S
b11010 R
1Q
#4400
0Q
#4500
b11011 R
b11 S
1Q
#4600
0Q
#4700
b100 S
b11100 R
1Q
#4800
0Q
#4900
b11101 R
0%
b101 S
1Q
#5000
0Q
#5100
b110 S
b11110 R
1Q
#5200
0Q
#5300
b11111 R
b111 S
1Q
#5400
0Q
#5500
b0 S
b0 R
1Q
#5600
0Q
#5700
b11111111 A
b11111111 E
b11111111111111111111111111111111 J
1,
b11111111 C
1<
b11111111 B
b11111111 F
10
b11111111111111111111111111111111 I
1-
0+
17
b11111111 D
1;
11
0/
b0 K
03
08
b0 G
14
b0z00 H
b111111111111111111111111xxxxxxxx !
b111111111111111111111111xxxxxxxx O
b111111111111111111111111xxxxxxxx M
b11 L
b0 (
b11111111111111111111111111111111 )
1&
b1 R
1%
b1 S
1Q
#5800
0Q
#5900
b10 S
b10 R
1Q
#6000
0Q
#6100
b11 R
b11 S
1Q
#6200
0Q
#6300
b100 S
b100 R
1Q
#6400
0Q
#6500
b101 R
0%
b101 S
1Q
#6600
0Q
#6700
b110 S
b110 R
1Q
#6800
0Q
#6900
b111 R
b111 S
1Q
#7000
0Q
#7100
b0 S
b1000 R
1Q
#7200
0Q
#7300
0.
01
00
07
b11111111 D
b1 K
b11111111 B
0/
1+
13
08
09
16
14
b0z01 H
15
02
b11 G
b1 (
b0 L
b11111111111111111111111111111111 M
b11011101111111111111111111111111 J
b11011101111111111111111111111111 I
b11011101 ?
b11111111 E
b1101110100000000 @
b1111111100000000 F
b11x111x1111111111111111111111111 !
b11x111x1111111111111111111111111 O
b11011101111111111111111111111111 )
b11011101 $
b11011101 '
b11011101 >
b11011101 P
b1001 R
1%
b1 S
1Q
#7400
0Q
#7500
b10 S
b1010 R
1Q
#7600
0Q
#7700
b1011 R
b11 S
1Q
#7800
0Q
#7900
b100 S
b1100 R
1Q
#8000
0Q
#8100
b1101 R
0%
b101 S
1Q
#8200
0Q
#8300
b110 S
b1110 R
1Q
#8400
0Q
#8500
b1111 R
b111 S
1Q
#8600
0Q
#8700
b0 S
b10000 R
1Q
#8800
0Q
#8900
b11111111 C
b11111111 E
1.
b11011101 ?
10
1/
1;
b11111111 D
1:
b1111111100000000 F
19
b11011101 @
1=
0-
1,
1+
b10 K
05
06
b10 G
12
b0z10 H
b11011101111111111111111111111111 M
b1 L
b10 (
b11011101110111011111111111111111 J
b11011101110111011111111111111111 I
b11011101 A
b1101110100000000 B
b1101110111x111x11111111111111111 !
b1101110111x111x11111111111111111 O
b11011101110111011111111111111111 )
0&
b10001 R
1%
b1 S
1Q
#9000
0Q
#9100
b10 S
b10010 R
1Q
#9200
0Q
#9300
b10011 R
b11 S
1Q
#9400
0Q
#9500
b100 S
b10100 R
1Q
#9600
0Q
#9700
b10101 R
0%
b101 S
1Q
#9800
0Q
#9900
b110 S
b10110 R
1Q
#10000
0Q
#10100
b10111 R
b111 S
1Q
#10200
0Q
#10300
b0 S
b11000 R
1Q
#10400
0Q
#10500
b11011101 ?
b11111111 E
1-
b11011101 A
1=
b11011101 @
1:
b1111111100000000 F
11
0,
1.
1+
18
b11 K
b11011101 B
1<
00
1/
04
09
b0z11 H
15
b1 G
b11 (
b10 L
b11011101110111011111111111111111 M
b11011101110111011101110111111111 J
b11011101110111011101110111111111 I
b11011101 C
b1101110100000000 D
b110111011101110111x111x111111111 !
b110111011101110111x111x111111111 O
b11011101110111011101110111111111 )
b11001 R
1%
b1 S
1Q
#10600
0Q
#10700
b10 S
b11010 R
1Q
#10800
0Q
#10900
b11011 R
b11 S
1Q
#11000
0Q
#11100
b100 S
b11100 R
1Q
#11200
0Q
#11300
b11101 R
0%
b101 S
1Q
#11400
0Q
#11500
b110 S
b11110 R
1Q
#11600
0Q
#11700
b11111 R
b111 S
1Q
#11800
0Q
#11900
b0 S
b0 R
1Q
#12000
0Q
#12100
b11011101 A
1,
b11011101 C
1<
b11011101 B
10
1-
0+
17
b11011101 D
1;
11
0/
b0 K
03
08
b0 G
14
b0z00 H
b11011101110111011101110111111111 M
b11 L
b0 (
b11011101110111011101110111011101 J
b11011101110111011101110111011101 I
b11011101 E
b11011101 F
b11011101110111011101110111x111x1 !
b11011101110111011101110111x111x1 O
b11011101110111011101110111011101 )
1&
b1 R
1%
b1 S
1Q
#12200
0Q
#12300
b10 S
b10 R
1Q
#12400
0Q
#12500
b11 R
b11 S
1Q
#12600
0Q
#12700
b100 S
b100 R
1Q
#12800
0Q
#12900
b101 R
0%
b101 S
1Q
#13000
0Q
#13100
b110 S
b110 R
1Q
#13200
0Q
#13300
b111 R
b111 S
1Q
#13400
0Q
#13500
b0 S
b1000 R
1Q
#13600
0Q
#13700
0.
01
00
b1101110100000000 F
07
b11011101 D
b11011101 B
0/
b1101110100000000 @
1+
13
08
09
16
14
b0z01 H
15
02
b11 G
0*
0"
0N
b0 L
b11011101110111011101110111011101 !
b11011101110111011101110111011101 O
b11011101110111011101110111011101 M
b11011101110111011101110111011101 J
0#
b1001 R
1%
b1 S
1Q
#13800
0Q
#13900
b10 S
b1010 R
1Q
#14000
0Q
#14100
b1011 R
b11 S
1Q
#14200
0Q
#14300
b100 S
b1100 R
1Q
#14400
0Q
#14500
b1101 R
0%
b101 S
1Q
#14600
0Q
#14700
b110 S
b1110 R
1Q
#14800
0Q
#14900
b1111 R
b111 S
1Q
#15000
0Q
#15100
b0 S
b10000 R
1Q
#15200
0Q
#15300
0&
b10001 R
1%
b1 S
1Q
#15400
0Q
#15500
b10 S
b10010 R
1Q
#15600
0Q
#15700
b10011 R
b11 S
1Q
#15800
0Q
#15900
b100 S
b10100 R
1Q
#16000
0Q
#16100
b10101 R
0%
b101 S
1Q
#16200
0Q
#16300
b110 S
b10110 R
1Q
#16400
0Q
#16500
b10111 R
b111 S
1Q
#16600
0Q
#16700
b0 S
b11000 R
1Q
#16800
0Q
#16900
b11001 R
1%
b1 S
1Q
#17000
0Q
#17100
b10 S
b11010 R
1Q
#17200
0Q
#17300
b11011 R
b11 S
1Q
#17400
0Q
#17500
b100 S
b11100 R
1Q
#17600
0Q
#17700
b11101 R
0%
b101 S
1Q
#17800
0Q
#17900
b110 S
b11110 R
1Q
#18000
0Q
#18100
b11111 R
b111 S
1Q
#18200
0Q
#18300
b0 S
b0 R
1Q
#18400
0Q
#18500
1&
b1 R
1%
b1 S
1Q
#18600
0Q
#18700
b10 S
b10 R
1Q
#18800
0Q
#18900
b11 R
b11 S
1Q
#19000
0Q
#19100
b100 S
b100 R
1Q
#19200
0Q
#19300
b101 R
0%
b101 S
1Q
#19400
0Q
#19500
b110 S
b110 R
1Q
#19600
0Q
#19700
b111 R
b111 S
1Q
#19800
0Q
#19900
b0 S
b1000 R
1Q
#20000
0Q
#20100
b110111011101110111011101 I
b0 ?
b0 @
b0 $
b0 '
b0 >
b0 P
b1001 R
1%
b1 S
1Q
#20200
0Q
#20300
b10 S
b1010 R
1Q
#20400
0Q
#20500
b1011 R
b11 S
1Q
#20600
0Q
#20700
b100 S
b1100 R
1Q
#20800
0Q
#20900
b1101 R
0%
b101 S
1Q
#21000
0Q
#21100
b110 S
b1110 R
1Q
#21200
0Q
#21300
b1111 R
b111 S
1Q
#21400
0Q
#21500
b0 S
b10000 R
1Q
#21600
0Q
#21700
0&
b10001 R
1%
b1 S
1Q
#21800
0Q
#21900
b10 S
b10010 R
1Q
#22000
0Q
#22100
b10011 R
b11 S
1Q
#22200
0Q
#22300
b100 S
b10100 R
1Q
#22400
0Q
#22500
b10101 R
0%
b101 S
1Q
#22600
0Q
#22700
b110 S
b10110 R
1Q
#22800
0Q
#22900
b10111 R
b111 S
1Q
#23000
0Q
#23100
b0 S
b11000 R
1Q
#23200
0Q
#23300
b11001 R
1%
b1 S
1Q
#23400
0Q
#23500
b10 S
b11010 R
1Q
#23600
0Q
#23700
b11011 R
b11 S
1Q
#23800
0Q
#23900
b100 S
b11100 R
1Q
#24000
0Q
#24100
b11101 R
0%
b101 S
1Q
#24200
0Q
#24300
b110 S
b11110 R
1Q
#24400
0Q
#24500
b11111 R
b111 S
1Q
#24600
0Q
#24700
b0 S
b0 R
1Q
#24800
0Q
#24900
b11110111011101110111011101 I
b11 ?
b1100000000 @
b11 $
b11 '
b11 >
b11 P
1&
b1 R
1%
b1 S
1Q
#25000
0Q
#25100
b10 S
b10 R
1Q
#25200
0Q
#25300
b11 R
b11 S
1Q
#25400
0Q
#25500
b100 S
b100 R
1Q
#25600
0Q
#25700
b101 R
0%
b101 S
1Q
#25800
0Q
#25900
b110 S
b110 R
1Q
#26000
0Q
#26100
b111 R
b111 S
1Q
#26200
0Q
#26300
b0 S
b1000 R
1Q
#26400
0Q
#26500
b1001 R
1%
b1 S
1Q
#26600
0Q
#26700
b10 S
b1010 R
1Q
#26800
0Q
#26900
b1011 R
b11 S
1Q
#27000
0Q
#27100
b100 S
b1100 R
1Q
#27200
0Q
#27300
b1101 R
0%
b101 S
1Q
#27400
0Q
#27500
b110 S
b1110 R
1Q
#27600
0Q
#27700
b1111 R
b111 S
1Q
#27800
0Q
#27900
b0 S
b10000 R
1Q
#28000
0Q
#28100
0&
b10001 R
1%
b1 S
1Q
#28200
0Q
#28300
b10 S
b10010 R
1Q
#28400
0Q
#28500
b10011 R
b11 S
1Q
#28600
0Q
#28700
b100 S
b10100 R
1Q
#28800
0Q
#28900
b10101 R
0%
b101 S
1Q
#29000
0Q
#29100
b110 S
b10110 R
1Q
#29200
0Q
#29300
b10111 R
b111 S
1Q
#29400
0Q
#29500
b0 S
b11000 R
1Q
#29600
0Q
#29700
b11001 R
1%
b1 S
1Q
#29800
0Q
#29900
b10 S
b11010 R
1Q
#30000
0Q
#30100
b11011 R
b11 S
1Q
#30200
0Q
#30300
b100 S
b11100 R
1Q
#30400
0Q
#30500
b11101 R
0%
b101 S
1Q
#30600
0Q
#30700
b110 S
b11110 R
1Q
#30800
0Q
#30900
b11111 R
b111 S
1Q
#31000
0Q
#31100
b0 S
b0 R
1Q
#31200
0Q
#31300
1&
b1 R
1%
b1 S
1Q
